/SOMA169
;The tallest by Courtney 01.08.99
;This I believe is the tallest stable 'Vertical'
;SOMA figure that really balances. (See also 153)
/000/000/040/000/000/000/000/000/000/000/000/500/000/006/000/000
/110/010/040/040/030/330/030/020/020/022/050/550/060/066/070/077
/000/000/000/040/000/000/000/000/000/000/000/000/000/000/000/070
